College Football First Plays - Sports Data Blog
…
## 52.75 sec elapsed

Now we’re ready. First, let’s take a peek at Saturday’s game, where the Terps beat Indiana 38-33. Let’s see what role Connor Bazelak played in the contest.

sat_game <- pbp %>%
  filter(game_id == 401405114)%>%
  filter(str_detect(play_text, "Bazelak"))
         
sat_game   

## ────────────────────────────────────────────────────────────── cfbfastR 1.9.0 ──

## # A tibble: 54 × 331
##     year  week id_play   game_id game_…¹ half_…² drive…³ pos_t…⁴ def_p…⁵ pos_t…⁶
##    <dbl> <int>   <dbl>     <int>   <dbl>   <dbl>   <dbl> <chr>   <chr>     <int>
##  1  2022     7 4.01e17 401405114       2       2       2 Indiana Maryla…       0
##  2  2022     7 4.01e17 401405114       9       9       3 Indiana Maryla…       0
##  3  2022     7 4.01e17 401405114      10      10       4 Indiana Maryla…       0
##  4  2022     7 4.01e17 401405114      12      12       6 Indiana Maryla…       0
##  5  2022     7 4.01e17 401405114      13      13       7 Indiana Maryla…       0
##  6  2022     7 4.01e17 401405114      14      14       8 Indiana Maryla…       0
##  7  2022     7 4.01e17 401405114      16      16      10 Indiana Maryla…       0
##  8  2022     7 4.01e17 401405114      17      17      11 Indiana Maryla…       0
##  9  2022     7 4.01e17 401405114      31      31       1 Indiana Maryla…       3
## 10  2022     7 4.01e17 401405114      44      44       2 Indiana Maryla…       3
## # … with 44 more rows, 321 more variables: def_pos_team_score <int>,
## #   half <dbl>, period <int>, clock.minutes <int>, clock.seconds <int>,
## #   play_type <chr>, play_text <chr>, down <dbl>, distance <dbl>,
## #   yards_to_goal <dbl>, yards_gained <dbl>, EPA <dbl>, ep_before <dbl>,
## #   ep_after <dbl>, wpa <dbl>, wp_before <dbl>, wp_after <dbl>,
## #   def_wp_before <dbl>, def_wp_after <dbl>, penalty_detail <chr>,
## #   yds_penalty <dbl>, penalty_1st_conv <lgl>, new_series <dbl>, …
…
Would you like at that! There have been more this year.

Let’s see which teams do it most.

team_first_interceptions <- first_plays_interceptions%>%
  group_by(pos_team)%>%
  summarise(count = n())%>%
  arrange(desc(count))

team_first_interceptions

## # A tibble: 45 × 2
##    pos_team        count
##    <chr>           <int>
##  1 Purdue              3
##  2 Ball State          2
##  3 BYU                 2
##  4 Indiana             2
##  5 Tulsa               2
##  6 UAB                 2
##  7 Alabama             1
##  8 Bethune-Cookman     1
##  9 Boston College      1
## 10 Bowling Green       1
## # … with 35 more rows
…
