Big Ten Football Average Plays - Sports Data Blog
…
cfb <- read_csv("https://dwillis.github.io/sports-data-files/footballlogs21.csv")

## Rows: 1655 Columns: 54
## ── Column specification ────────────────────────────────────────────────────────
## Delimiter: ","
## chr   (8): HomeAway, Opponent, Result, TeamFull, TeamURL, Outcome, Team, Con...
## dbl  (45): Game, PassingCmp, PassingAtt, PassingPct, PassingYds, PassingTD, ...
## date  (1): Date
## 
## ℹ Use `spec()` to retrieve the full column specification for this data.
## ℹ Specify the column types or set `show_col_types = FALSE` to quiet this message.

cfb

## # A tibble: 1,655 × 54
##     Game Date       HomeAway Opponent     Result Passi…¹ Passi…² Passi…³ Passi…⁴
##    <dbl> <date>     <chr>    <chr>        <chr>    <dbl>   <dbl>   <dbl>   <dbl>
##  1     1 2021-09-04 <NA>     Western Mic… W (47…      13      17    76.5     216
##  2     2 2021-09-11 <NA>     Washington   W (31…       7      15    46.7      44
##  3     3 2021-09-18 <NA>     Northern Il… W (63…      12      17    70.6     233
##  4     4 2021-09-25 <NA>     Rutgers      W (20…       9      16    56.3     163
##  5     5 2021-10-02 @        Wisconsin    W (38…      18      30    60       253
##  6     6 2021-10-09 @        Nebraska     W (32…      22      39    56.4     255
##  7     7 2021-10-23 <NA>     Northwestern W (33…      23      32    71.9     163
##  8     8 2021-10-30 @        Michigan St… L (33…      31      48    64.6     406
##  9     9 2021-11-06 <NA>     Indiana      W (29…      15      28    53.6     223
## 10    10 2021-11-13 @        Penn State   W (21…      19      29    65.5     217
## # … with 1,645 more rows, 45 more variables: PassingTD <dbl>, RushingAtt <dbl>,
## #   RushingYds <dbl>, RushingAvg <dbl>, RushingTD <dbl>, OffensivePlays <dbl>,
## #   OffensiveYards <dbl>, OffenseAvg <dbl>, FirstDownPass <dbl>,
## #   FirstDownRush <dbl>, FirstDownPen <dbl>, FirstDownTotal <dbl>,
## #   Penalties <dbl>, PenaltyYds <dbl>, Fumbles <dbl>, Interceptions <dbl>,
## #   TotalTurnovers <dbl>, TeamFull <chr>, TeamURL <chr>, Outcome <chr>,
## #   TeamScore <dbl>, OpponentScore <dbl>, DefPassingCmp <dbl>, …
…
cfb22 <- read_csv("https://dwillis.github.io/sports-data-files/footballlogs22.csv")

## Rows: 758 Columns: 54
## ── Column specification ────────────────────────────────────────────────────────
## Delimiter: ","
## chr   (8): HomeAway, Opponent, Result, TeamFull, TeamURL, Outcome, Team, Con...
## dbl  (45): Game, PassingCmp, PassingAtt, PassingPct, PassingYds, PassingTD, ...
## date  (1): Date
## 
## ℹ Use `spec()` to retrieve the full column specification for this data.
## ℹ Specify the column types or set `show_col_types = FALSE` to quiet this message.

cfb22

## # A tibble: 758 × 54
##     Game Date       HomeAway Opponent     Result Passi…¹ Passi…² Passi…³ Passi…⁴
##    <dbl> <date>     <chr>    <chr>        <chr>    <dbl>   <dbl>   <dbl>   <dbl>
##  1     1 2022-09-01 <NA>     Central Mic… W (58…      28      41    68.3     406
##  2     2 2022-09-10 <NA>     Arizona Sta… W (34…      21      38    55.3     268
##  3     3 2022-09-17 <NA>     Arkansas-Pi… W (63…      25      38    65.8     370
##  4     4 2022-10-01 @        Baylor       W (36…      21      30    70       213
##  5     5 2022-10-08 <NA>     Texas Tech   W (41…      22      45    48.9     297
##  6     1 2022-09-02 @        Colorado     W (38…      15      23    65.2     138
##  7     2 2022-09-10 <NA>     Tarleton St… W (59…      28      34    82.4     450
##  8     3 2022-09-24 @        Southern Me… W (42…      23      30    76.7     296
##  9     4 2022-10-01 <NA>     Oklahoma     W (55…      24      34    70.6     307
## 10     5 2022-10-08 @        Kansas       W (38…      23      33    69.7     308
## # … with 748 more rows, 45 more variables: PassingTD <dbl>, RushingAtt <dbl>,
## #   RushingYds <dbl>, RushingAvg <dbl>, RushingTD <dbl>, OffensivePlays <dbl>,
## #   OffensiveYards <dbl>, OffenseAvg <dbl>, FirstDownPass <dbl>,
## #   FirstDownRush <dbl>, FirstDownPen <dbl>, FirstDownTotal <dbl>,
## #   Penalties <dbl>, PenaltyYds <dbl>, Fumbles <dbl>, Interceptions <dbl>,
## #   TotalTurnovers <dbl>, TeamFull <chr>, TeamURL <chr>, Outcome <chr>,
## #   TeamScore <dbl>, OpponentScore <dbl>, DefPassingCmp <dbl>, …
…
